{
    "list" :[
      {
        "post_id": 1,
        "post_category_id": 1,
        "post_category_name": "Tin Tức",
        "post_name" : "Vị thuốc IQOS nào phù hợp với bạn",
        "post_description" : "Để chiều lòng người sử dụng IQOS, nhà sản xuất đã cho ra mắt các vị thuốc khác nhau để thỏa mãn độ “phê” của người sử dụng.",
        "post_content" : "There are many variations of passages of Lorem Ipsum available, but the majority have suffered alteration in some form, by injected humour, or randomised words which don't look even slightly believable. If you are going to use a passage of Lorem Ipsum, you need to be sure there isn't anything embarrassing hidden in the middle of text. All the Lorem Ipsum generators on the Internet tend to repeat predefined chunks as necessary, making this the first true generator on the Internet. It uses a dictionary of over 200 Latin words, combined with a handful of model sentence structures, to generate Lorem Ipsum which looks reasonable. The generated Lorem Ipsum is therefore always free from repetition, injected humour, or non-characteristic words etc.",
        "post_author" : "admin1",
        "post_thumbnail" : [
          "https://iqos.thietkeweb5ngay.vn/wp-content/uploads/2018/06/cuahang.jpg"
        ]
      },
      {
        "post_id": 1,
        "post_category_id": 1,
        "post_category_name": "Tin Tức",
        "post_name" : "Vị thuốc IQOS nào phù hợp với bạn",
        "post_description" : "Để chiều lòng người sử dụng IQOS, nhà sản xuất đã cho ra mắt các vị thuốc khác nhau để thỏa mãn độ “phê” của người sử dụng.",
        "post_content" : "There are many variations of passages of Lorem Ipsum available, but the majority have suffered alteration in some form, by injected humour, or randomised words which don't look even slightly believable. If you are going to use a passage of Lorem Ipsum, you need to be sure there isn't anything embarrassing hidden in the middle of text. All the Lorem Ipsum generators on the Internet tend to repeat predefined chunks as necessary, making this the first true generator on the Internet. It uses a dictionary of over 200 Latin words, combined with a handful of model sentence structures, to generate Lorem Ipsum which looks reasonable. The generated Lorem Ipsum is therefore always free from repetition, injected humour, or non-characteristic words etc.",
        "post_author" : "admin1",
        "post_thumbnail" : [
          "http://mka.giaodienwebmau.com/wp-content/uploads/2020/09/20200805_1596564496_dam-suong-co-tron-2099-valentino-1-247x296.png"
        ]
      },
      {
        "post_id": 2,
        "post_category_id": 1,
        "post_category_name": "Tin Tức",
        "post_name" : "3 vị mới nhất của Marlboro",
        "post_description" : "Marlboro Japan không còn gì để bàn cãi về chất lượng bỏi vì nó quá quen thuộc với các khách hàng trên toàn thế giới.",
        "post_content" : "There are many variations of passages of Lorem Ipsum available, but the majority have suffered alteration in some form, by injected humour, or randomised words which don't look even slightly believable. If you are going to use a passage of Lorem Ipsum, you need to be sure there isn't anything embarrassing hidden in the middle of text. All the Lorem Ipsum generators on the Internet tend to repeat predefined chunks as necessary, making this the first true generator on the Internet. It uses a dictionary of over 200 Latin words, combined with a handful of model sentence structures, to generate Lorem Ipsum which looks reasonable. The generated Lorem Ipsum is therefore always free from repetition, injected humour, or non-characteristic words etc.",
        "post_author" : "admin1",
        "post_thumbnail" : [
          "https://iqos.thietkeweb5ngay.vn/wp-content/uploads/2018/06/34258918_1033989663424907_2944366970952220672_n-360x360-1.jpg"
        ]
      },
      {
        "post_id": 3,
        "post_category_id": 1,
        "post_category_name": "Tin Tức",
        "post_name" : "2 vị mới của FiiT bạn đã thử chưa?",
        "post_description" : "Fiit Match – Vị cafe sữa : Với những ai yêu thích cà phê, nhất",
        "post_content" : "There are many variations of passages of Lorem Ipsum available, but the majority have suffered alteration in some form, by injected humour, or randomised words which don't look even slightly believable. If you are going to use a passage of Lorem Ipsum, you need to be sure there isn't anything embarrassing hidden in the middle of text. All the Lorem Ipsum generators on the Internet tend to repeat predefined chunks as necessary, making this the first true generator on the Internet. It uses a dictionary of over 200 Latin words, combined with a handful of model sentence structures, to generate Lorem Ipsum which looks reasonable. The generated Lorem Ipsum is therefore always free from repetition, injected humour, or non-characteristic words etc.",
        "post_author" : "admin1",
        "post_thumbnail" : [
          "https://iqos.thietkeweb5ngay.vn/wp-content/uploads/2018/06/34268749_1033998450090695_1575397543225851904_n-360x360.jpg"
        ]
      },
      {
        "post_id": 4,
        "post_category_id": 1,
        "post_category_name": "Tin Tức",
        "post_name" : "Sửa chữa IQOS uy tín số 1 tại Hà Nội",
        "post_description" : "Hút thuốc lá trực tiếp gây hại cho sức khỏe con người, là căn nguyên ",
        "post_content" : "There are many variations of passages of Lorem Ipsum available, but the majority have suffered alteration in some form, by injected humour, or randomised words which don't look even slightly believable. If you are going to use a passage of Lorem Ipsum, you need to be sure there isn't anything embarrassing hidden in the middle of text. All the Lorem Ipsum generators on the Internet tend to repeat predefined chunks as necessary, making this the first true generator on the Internet. It uses a dictionary of over 200 Latin words, combined with a handful of model sentence structures, to generate Lorem Ipsum which looks reasonable. The generated Lorem Ipsum is therefore always free from repetition, injected humour, or non-characteristic words etc.",
        "post_author" : "admin1",
        "post_thumbnail" : [
          "https://iqos.thietkeweb5ngay.vn/wp-content/uploads/2018/06/33486872_2166436716711902_1266460159077515264_n.jpg"
        ]
      },
      {
        "post_id": 5,
        "post_category_id": 1,
        "post_category_name": "Tin Tức",
        "post_name" : "22 vị thuốc dành cho IQOS",
        "post_description" : "Trên thị trường có rất nhiều dòng thuốc IQOS cùng nhiều mùi vị khác nhau",
        "post_content" : "There are many variations of passages of Lorem Ipsum available, but the majority have suffered alteration in some form, by injected humour, or randomised words which don't look even slightly believable. If you are going to use a passage of Lorem Ipsum, you need to be sure there isn't anything embarrassing hidden in the middle of text. All the Lorem Ipsum generators on the Internet tend to repeat predefined chunks as necessary, making this the first true generator on the Internet. It uses a dictionary of over 200 Latin words, combined with a handful of model sentence structures, to generate Lorem Ipsum which looks reasonable. The generated Lorem Ipsum is therefore always free from repetition, injected humour, or non-characteristic words etc.",
        "post_author" : "admin1",
        "post_thumbnail" : [
          "https://iqos.thietkeweb5ngay.vn/wp-content/uploads/2018/06/nga-360x360.jpg"
        ]
      },
      {
        "post_id": 6,
        "post_category_id": 2,
        "post_category_name": "Hỏi Đáp",
        "post_name" : "Ở Hòa Bình mua iQOS ở đâu chính hãng?",
        "post_description" : "Câu hỏi: Chào công ty, ở Hòa Bình có cửa hàng bán iQOS chính hãng",
        "post_content" : "There are many variations of passages of Lorem Ipsum available, but the majority have suffered alteration in some form, by injected humour, or randomised words which don't look even slightly believable. If you are going to use a passage of Lorem Ipsum, you need to be sure there isn't anything embarrassing hidden in the middle of text. All the Lorem Ipsum generators on the Internet tend to repeat predefined chunks as necessary, making this the first true generator on the Internet. It uses a dictionary of over 200 Latin words, combined with a handful of model sentence structures, to generate Lorem Ipsum which looks reasonable. The generated Lorem Ipsum is therefore always free from repetition, injected humour, or non-characteristic words etc.",
        "post_author" : "admin1",
        "post_thumbnail" : [
          "https://iqos.thietkeweb5ngay.vn/wp-content/uploads/2018/06/8661522056_290957767-360x360-300x300.jpg"
        ]
      },
      {
        "post_id": 7,
        "post_category_id": 2,
        "post_category_name": "Hỏi Đáp",
        "post_name" : "Điểm bán iQOS chính hãng ở Hà Nam",
        "post_description" : "Câu hỏi: Chào công ty, ở Hòa Bình có cửa hàng bán iQOS chính hãng",
        "post_content" : "There are many variations of passages of Lorem Ipsum available, but the majority have suffered alteration in some form, by injected humour, or randomised words which don't look even slightly believable. If you are going to use a passage of Lorem Ipsum, you need to be sure there isn't anything embarrassing hidden in the middle of text. All the Lorem Ipsum generators on the Internet tend to repeat predefined chunks as necessary, making this the first true generator on the Internet. It uses a dictionary of over 200 Latin words, combined with a handful of model sentence structures, to generate Lorem Ipsum which looks reasonable. The generated Lorem Ipsum is therefore always free from repetition, injected humour, or non-characteristic words etc.",
        "post_author" : "admin1",
        "post_thumbnail" : [
          "https://iqos.thietkeweb5ngay.vn/wp-content/uploads/2018/06/IQOS-BLUE-gia-ban-hcm-0-300x300.jpg"
        ]
      },
      {
        "post_id": 8,
        "post_category_id": 2,
        "post_category_name": "Hỏi Đáp",
        "post_name" : "Hướng dẫn mua iQOS chính hãng ở Ninh Bình",
        "post_description" : "Câu hỏi: Chào quý công ty. Tôi đã tìm hiểu về iQOS ở trên website",
        "post_content" : "There are many variations of passages of Lorem Ipsum available, but the majority have suffered alteration in some form, by injected humour, or randomised words which don't look even slightly believable. If you are going to use a passage of Lorem Ipsum, you need to be sure there isn't anything embarrassing hidden in the middle of text. All the Lorem Ipsum generators on the Internet tend to repeat predefined chunks as necessary, making this the first true generator on the Internet. It uses a dictionary of over 200 Latin words, combined with a handful of model sentence structures, to generate Lorem Ipsum which looks reasonable. The generated Lorem Ipsum is therefore always free from repetition, injected humour, or non-characteristic words etc.",
        "post_author" : "admin1",
        "post_thumbnail" : [
          "https://iqos.thietkeweb5ngay.vn/wp-content/uploads/2018/06/8661495303_290957767-360x360-300x300.jpg"
        ]
      }
    ],
  
    "category_list" : [
      {
        "post_category_id" : 1,
        "post_category_name" : "Tin Tức",
        "totail_post_in_category" : "99",
        "author_category" : "admin1"
      },
      {
        "post_category_id" : 2,
        "post_category_name" : "Hỏi Đáp",
        "totail_post_in_category" : "99",
        "author_category" : "admin1"
      }
    ]
  }